[
  {
    "description": "Bump boto3 to 1.18.* version.",
    "type": "minor"
  },
  {
    "description": "Internal maintenance: Bump dependency bitbucket-pipes-toolkit to 3.2.0 version.",
    "type": "minor"
  }
]