[
  {
    "description": "Add feature check the lambda to be in active state and successful last update status before executing. Add wait for successful update state after lambda configuration update. Add support for wait until lambda update is successful.",
    "type": "minor"
  },
  {
    "description": "Bump boto3 version to 1.20.*.",
    "type": "minor"
  },
  {
    "description": "Internal maintenance: bump pipe versions.",
    "type": "patch"
  }
]